<mxfile host="www.draw.io" modified="2019-11-17T00:26:45.650Z" agent="Mozilla/5.0 (Macintosh; Intel Mac OS X 10_9_3) AppleWebKit/537.75.14 (KHTML, like Gecko) Version/7.0.3 Safari/7046A194A" etag="j3pwqeHIw_zBcxPCC0V9" version="12.2.6" type="gitlab" pages="3">
  <diagram id="4rvxCBszWmI_cgGhMixH" name="Page-1">
    <mxGraphModel dx="1071" dy="866" grid="1" gridSize="10" guides="1" tooltips="1" connect="1" arrows="1" fold="1" page="1" pageScale="1" pageWidth="1654" pageHeight="2336" math="0" shadow="0">
      <root>
        <mxCell id="0"/>
        <mxCell id="1" parent="0"/>
        <mxCell id="JgqmGgJG2Wxv3Q3q17FN-6" style="edgeStyle=orthogonalEdgeStyle;rounded=0;orthogonalLoop=1;jettySize=auto;html=1;exitX=0.5;exitY=1;exitDx=0;exitDy=0;entryX=0;entryY=0.5;entryDx=0;entryDy=0;" edge="1" parent="1" source="JgqmGgJG2Wxv3Q3q17FN-1" target="JgqmGgJG2Wxv3Q3q17FN-20">
          <mxGeometry relative="1" as="geometry">
            <mxPoint x="879.5882352941178" y="190.47058823529414" as="targetPoint"/>
          </mxGeometry>
        </mxCell>
        <mxCell id="JgqmGgJG2Wxv3Q3q17FN-29" style="edgeStyle=orthogonalEdgeStyle;rounded=0;orthogonalLoop=1;jettySize=auto;html=1;exitX=0.5;exitY=1;exitDx=0;exitDy=0;" edge="1" parent="1" source="JgqmGgJG2Wxv3Q3q17FN-1" target="JgqmGgJG2Wxv3Q3q17FN-28">
          <mxGeometry relative="1" as="geometry"/>
        </mxCell>
        <mxCell id="JgqmGgJG2Wxv3Q3q17FN-1" value="회원 관리 기능" style="rounded=0;whiteSpace=wrap;html=1;" vertex="1" parent="1">
          <mxGeometry x="720" y="90" width="120" height="60" as="geometry"/>
        </mxCell>
        <mxCell id="JgqmGgJG2Wxv3Q3q17FN-14" value="시간표" style="rounded=0;whiteSpace=wrap;html=1;" vertex="1" parent="1">
          <mxGeometry x="650" y="440" width="120" height="60" as="geometry"/>
        </mxCell>
        <mxCell id="JgqmGgJG2Wxv3Q3q17FN-20" value="담당 트레이너" style="rounded=0;whiteSpace=wrap;html=1;" vertex="1" parent="1">
          <mxGeometry x="910" y="170" width="120" height="60" as="geometry"/>
        </mxCell>
        <mxCell id="JgqmGgJG2Wxv3Q3q17FN-31" style="edgeStyle=orthogonalEdgeStyle;rounded=0;orthogonalLoop=1;jettySize=auto;html=1;exitX=0.5;exitY=1;exitDx=0;exitDy=0;entryX=0.5;entryY=0;entryDx=0;entryDy=0;" edge="1" parent="1" source="JgqmGgJG2Wxv3Q3q17FN-28">
          <mxGeometry relative="1" as="geometry">
            <mxPoint x="705.4705882352941" y="439.8823529411766" as="targetPoint"/>
          </mxGeometry>
        </mxCell>
        <mxCell id="JgqmGgJG2Wxv3Q3q17FN-32" style="edgeStyle=orthogonalEdgeStyle;rounded=0;orthogonalLoop=1;jettySize=auto;html=1;exitX=0.5;exitY=1;exitDx=0;exitDy=0;entryX=0.5;entryY=0;entryDx=0;entryDy=0;" edge="1" parent="1" source="JgqmGgJG2Wxv3Q3q17FN-28">
          <mxGeometry relative="1" as="geometry">
            <mxPoint x="859.5882352941178" y="439.8823529411766" as="targetPoint"/>
          </mxGeometry>
        </mxCell>
        <mxCell id="JgqmGgJG2Wxv3Q3q17FN-34" style="edgeStyle=orthogonalEdgeStyle;rounded=0;orthogonalLoop=1;jettySize=auto;html=1;exitX=0.5;exitY=1;exitDx=0;exitDy=0;entryX=0.5;entryY=0;entryDx=0;entryDy=0;" edge="1" parent="1" source="JgqmGgJG2Wxv3Q3q17FN-28" target="JgqmGgJG2Wxv3Q3q17FN-38">
          <mxGeometry relative="1" as="geometry">
            <mxPoint x="1010" y="430" as="targetPoint"/>
          </mxGeometry>
        </mxCell>
        <mxCell id="JgqmGgJG2Wxv3Q3q17FN-35" style="edgeStyle=orthogonalEdgeStyle;rounded=0;orthogonalLoop=1;jettySize=auto;html=1;exitX=0.5;exitY=1;exitDx=0;exitDy=0;entryX=0.5;entryY=0;entryDx=0;entryDy=0;" edge="1" parent="1" source="JgqmGgJG2Wxv3Q3q17FN-28">
          <mxGeometry relative="1" as="geometry">
            <mxPoint x="550.1764705882354" y="439.8823529411766" as="targetPoint"/>
          </mxGeometry>
        </mxCell>
        <mxCell id="JgqmGgJG2Wxv3Q3q17FN-28" value="프로그램" style="rounded=0;whiteSpace=wrap;html=1;" vertex="1" parent="1">
          <mxGeometry x="720" y="290" width="120" height="60" as="geometry"/>
        </mxCell>
        <mxCell id="JgqmGgJG2Wxv3Q3q17FN-36" value="등록 회원" style="rounded=0;whiteSpace=wrap;html=1;" vertex="1" parent="1">
          <mxGeometry x="490" y="440" width="120" height="60" as="geometry"/>
        </mxCell>
        <mxCell id="JgqmGgJG2Wxv3Q3q17FN-37" value="등록일자" style="rounded=0;whiteSpace=wrap;html=1;" vertex="1" parent="1">
          <mxGeometry x="800" y="440" width="120" height="60" as="geometry"/>
        </mxCell>
        <mxCell id="JgqmGgJG2Wxv3Q3q17FN-46" value="" style="edgeStyle=elbowEdgeStyle;rounded=0;orthogonalLoop=1;jettySize=auto;elbow=vertical;html=1;startArrow=none;startFill=0;endArrow=blockThin;endFill=1;" edge="1" parent="1" source="JgqmGgJG2Wxv3Q3q17FN-38" target="JgqmGgJG2Wxv3Q3q17FN-45">
          <mxGeometry relative="1" as="geometry"/>
        </mxCell>
        <mxCell id="JgqmGgJG2Wxv3Q3q17FN-38" value="남은 수업횟수" style="rounded=0;whiteSpace=wrap;html=1;" vertex="1" parent="1">
          <mxGeometry x="950" y="440" width="120" height="60" as="geometry"/>
        </mxCell>
        <mxCell id="JgqmGgJG2Wxv3Q3q17FN-43" value="회원 관리기능 참조" style="shape=callout;whiteSpace=wrap;html=1;perimeter=calloutPerimeter;position2=1;base=34;" vertex="1" parent="1">
          <mxGeometry x="340" y="340" width="150" height="110" as="geometry"/>
        </mxCell>
        <mxCell id="JgqmGgJG2Wxv3Q3q17FN-44" value="" style="endArrow=oval;html=1;startArrow=oval;startFill=1;endFill=1;edgeStyle=elbowEdgeStyle;elbow=vertical;" edge="1" parent="1">
          <mxGeometry width="50" height="50" relative="1" as="geometry">
            <mxPoint x="1120" y="480" as="sourcePoint"/>
            <mxPoint x="440" y="480" as="targetPoint"/>
            <Array as="points">
              <mxPoint x="785" y="630"/>
            </Array>
          </mxGeometry>
        </mxCell>
        <mxCell id="JgqmGgJG2Wxv3Q3q17FN-45" value="수업 회수가 없으면 회원은 수업 참여 불가" style="rounded=0;whiteSpace=wrap;html=1;" vertex="1" parent="1">
          <mxGeometry x="690" y="530" width="400" height="60" as="geometry"/>
        </mxCell>
        <mxCell id="JgqmGgJG2Wxv3Q3q17FN-61" style="edgeStyle=elbowEdgeStyle;rounded=0;orthogonalLoop=1;jettySize=auto;elbow=vertical;html=1;exitX=0.5;exitY=1;exitDx=0;exitDy=0;entryX=0.5;entryY=0;entryDx=0;entryDy=0;startArrow=none;startFill=0;endArrow=blockThin;endFill=1;" edge="1" parent="1" source="JgqmGgJG2Wxv3Q3q17FN-47" target="JgqmGgJG2Wxv3Q3q17FN-60">
          <mxGeometry relative="1" as="geometry"/>
        </mxCell>
        <mxCell id="JgqmGgJG2Wxv3Q3q17FN-47" value="등록" style="rounded=0;whiteSpace=wrap;html=1;" vertex="1" parent="1">
          <mxGeometry x="500" y="686" width="120" height="60" as="geometry"/>
        </mxCell>
        <mxCell id="JgqmGgJG2Wxv3Q3q17FN-55" style="edgeStyle=elbowEdgeStyle;rounded=0;orthogonalLoop=1;jettySize=auto;elbow=vertical;html=1;exitX=0.5;exitY=1;exitDx=0;exitDy=0;startArrow=none;startFill=0;endArrow=blockThin;endFill=1;" edge="1" parent="1" source="JgqmGgJG2Wxv3Q3q17FN-48" target="JgqmGgJG2Wxv3Q3q17FN-56">
          <mxGeometry relative="1" as="geometry">
            <mxPoint x="800" y="810" as="targetPoint"/>
          </mxGeometry>
        </mxCell>
        <mxCell id="JgqmGgJG2Wxv3Q3q17FN-58" style="edgeStyle=elbowEdgeStyle;rounded=0;orthogonalLoop=1;jettySize=auto;elbow=vertical;html=1;exitX=0.5;exitY=1;exitDx=0;exitDy=0;entryX=0.5;entryY=0;entryDx=0;entryDy=0;startArrow=none;startFill=0;endArrow=blockThin;endFill=1;" edge="1" parent="1" source="JgqmGgJG2Wxv3Q3q17FN-48" target="JgqmGgJG2Wxv3Q3q17FN-57">
          <mxGeometry relative="1" as="geometry"/>
        </mxCell>
        <mxCell id="JgqmGgJG2Wxv3Q3q17FN-48" value="조회" style="rounded=0;whiteSpace=wrap;html=1;" vertex="1" parent="1">
          <mxGeometry x="800" y="686" width="120" height="60" as="geometry"/>
        </mxCell>
        <mxCell id="JgqmGgJG2Wxv3Q3q17FN-49" value="수정" style="rounded=0;whiteSpace=wrap;html=1;" vertex="1" parent="1">
          <mxGeometry x="650" y="686" width="120" height="60" as="geometry"/>
        </mxCell>
        <mxCell id="JgqmGgJG2Wxv3Q3q17FN-50" value="삭제" style="rounded=0;whiteSpace=wrap;html=1;" vertex="1" parent="1">
          <mxGeometry x="950" y="686" width="120" height="60" as="geometry"/>
        </mxCell>
        <mxCell id="JgqmGgJG2Wxv3Q3q17FN-51" value="" style="endArrow=classic;html=1;entryX=0.5;entryY=0;entryDx=0;entryDy=0;" edge="1" parent="1" target="JgqmGgJG2Wxv3Q3q17FN-47">
          <mxGeometry width="50" height="50" relative="1" as="geometry">
            <mxPoint x="560" y="630" as="sourcePoint"/>
            <mxPoint x="390" y="1130" as="targetPoint"/>
          </mxGeometry>
        </mxCell>
        <mxCell id="JgqmGgJG2Wxv3Q3q17FN-52" value="" style="endArrow=classic;html=1;entryX=0.5;entryY=0;entryDx=0;entryDy=0;" edge="1" parent="1" target="JgqmGgJG2Wxv3Q3q17FN-49">
          <mxGeometry width="50" height="50" relative="1" as="geometry">
            <mxPoint x="710" y="630" as="sourcePoint"/>
            <mxPoint x="570" y="696" as="targetPoint"/>
          </mxGeometry>
        </mxCell>
        <mxCell id="JgqmGgJG2Wxv3Q3q17FN-53" value="" style="endArrow=classic;html=1;entryX=0.5;entryY=0;entryDx=0;entryDy=0;" edge="1" parent="1" target="JgqmGgJG2Wxv3Q3q17FN-48">
          <mxGeometry width="50" height="50" relative="1" as="geometry">
            <mxPoint x="860" y="630" as="sourcePoint"/>
            <mxPoint x="580" y="706" as="targetPoint"/>
          </mxGeometry>
        </mxCell>
        <mxCell id="JgqmGgJG2Wxv3Q3q17FN-54" value="" style="endArrow=classic;html=1;entryX=0.5;entryY=0;entryDx=0;entryDy=0;" edge="1" parent="1" target="JgqmGgJG2Wxv3Q3q17FN-50">
          <mxGeometry width="50" height="50" relative="1" as="geometry">
            <mxPoint x="1010" y="630" as="sourcePoint"/>
            <mxPoint x="870" y="696" as="targetPoint"/>
          </mxGeometry>
        </mxCell>
        <mxCell id="JgqmGgJG2Wxv3Q3q17FN-56" value="회원id" style="rounded=0;whiteSpace=wrap;html=1;" vertex="1" parent="1">
          <mxGeometry x="730" y="800" width="120" height="60" as="geometry"/>
        </mxCell>
        <mxCell id="JgqmGgJG2Wxv3Q3q17FN-57" value="남은 수업 횟수" style="rounded=0;whiteSpace=wrap;html=1;" vertex="1" parent="1">
          <mxGeometry x="880" y="800" width="120" height="60" as="geometry"/>
        </mxCell>
        <mxCell id="JgqmGgJG2Wxv3Q3q17FN-60" value="등록일자" style="rounded=0;whiteSpace=wrap;html=1;" vertex="1" parent="1">
          <mxGeometry x="500" y="932" width="120" height="60" as="geometry"/>
        </mxCell>
      </root>
    </mxGraphModel>
  </diagram>
  <diagram id="vr9FqLJ0XQDItjnosR_M" name="Page-2">
    <mxGraphModel dx="910" dy="736" grid="1" gridSize="10" guides="1" tooltips="1" connect="1" arrows="1" fold="1" page="1" pageScale="1" pageWidth="1654" pageHeight="2336" math="0" shadow="0">
      <root>
        <mxCell id="iKVtsun-274gXnHqu6iJ-0"/>
        <mxCell id="iKVtsun-274gXnHqu6iJ-1" parent="iKVtsun-274gXnHqu6iJ-0"/>
        <mxCell id="iKVtsun-274gXnHqu6iJ-16" style="edgeStyle=elbowEdgeStyle;rounded=0;orthogonalLoop=1;jettySize=auto;elbow=vertical;html=1;exitX=0.5;exitY=1;exitDx=0;exitDy=0;entryX=0.5;entryY=0;entryDx=0;entryDy=0;startArrow=none;startFill=0;endArrow=blockThin;endFill=1;" edge="1" parent="iKVtsun-274gXnHqu6iJ-1" source="iKVtsun-274gXnHqu6iJ-12" target="iKVtsun-274gXnHqu6iJ-14">
          <mxGeometry relative="1" as="geometry"/>
        </mxCell>
        <mxCell id="iKVtsun-274gXnHqu6iJ-29" style="edgeStyle=orthogonalEdgeStyle;rounded=0;orthogonalLoop=1;jettySize=auto;html=1;exitX=0.5;exitY=1;exitDx=0;exitDy=0;startArrow=none;startFill=0;endArrow=blockThin;endFill=1;" edge="1" parent="iKVtsun-274gXnHqu6iJ-1" source="iKVtsun-274gXnHqu6iJ-12" target="iKVtsun-274gXnHqu6iJ-13">
          <mxGeometry relative="1" as="geometry"/>
        </mxCell>
        <mxCell id="iKVtsun-274gXnHqu6iJ-30" style="edgeStyle=orthogonalEdgeStyle;rounded=0;orthogonalLoop=1;jettySize=auto;html=1;exitX=0.5;exitY=1;exitDx=0;exitDy=0;startArrow=none;startFill=0;endArrow=blockThin;endFill=1;" edge="1" parent="iKVtsun-274gXnHqu6iJ-1" source="iKVtsun-274gXnHqu6iJ-12" target="iKVtsun-274gXnHqu6iJ-15">
          <mxGeometry relative="1" as="geometry"/>
        </mxCell>
        <mxCell id="iKVtsun-274gXnHqu6iJ-12" value="운동기구" style="rounded=0;whiteSpace=wrap;html=1;" vertex="1" parent="iKVtsun-274gXnHqu6iJ-1">
          <mxGeometry x="680" y="370" width="120" height="60" as="geometry"/>
        </mxCell>
        <mxCell id="iKVtsun-274gXnHqu6iJ-13" value="기구 번호" style="rounded=0;whiteSpace=wrap;html=1;" vertex="1" parent="iKVtsun-274gXnHqu6iJ-1">
          <mxGeometry x="500" y="490" width="120" height="60" as="geometry"/>
        </mxCell>
        <mxCell id="iKVtsun-274gXnHqu6iJ-14" value="노후 여부" style="rounded=0;whiteSpace=wrap;html=1;" vertex="1" parent="iKVtsun-274gXnHqu6iJ-1">
          <mxGeometry x="680" y="490" width="120" height="60" as="geometry"/>
        </mxCell>
        <mxCell id="iKVtsun-274gXnHqu6iJ-15" value="구매일자" style="rounded=0;whiteSpace=wrap;html=1;" vertex="1" parent="iKVtsun-274gXnHqu6iJ-1">
          <mxGeometry x="860" y="490" width="120" height="60" as="geometry"/>
        </mxCell>
        <mxCell id="iKVtsun-274gXnHqu6iJ-17" value="관리자&lt;br&gt;(트레이너)" style="rounded=0;whiteSpace=wrap;html=1;" vertex="1" parent="iKVtsun-274gXnHqu6iJ-1">
          <mxGeometry x="840" y="280" width="120" height="60" as="geometry"/>
        </mxCell>
        <mxCell id="iKVtsun-274gXnHqu6iJ-26" style="edgeStyle=orthogonalEdgeStyle;rounded=0;orthogonalLoop=1;jettySize=auto;html=1;exitX=0.5;exitY=1;exitDx=0;exitDy=0;entryX=0.5;entryY=0;entryDx=0;entryDy=0;startArrow=none;startFill=0;endArrow=blockThin;endFill=1;" edge="1" parent="iKVtsun-274gXnHqu6iJ-1" source="iKVtsun-274gXnHqu6iJ-25" target="iKVtsun-274gXnHqu6iJ-12">
          <mxGeometry relative="1" as="geometry"/>
        </mxCell>
        <mxCell id="iKVtsun-274gXnHqu6iJ-27" style="edgeStyle=orthogonalEdgeStyle;rounded=0;orthogonalLoop=1;jettySize=auto;html=1;exitX=0.5;exitY=1;exitDx=0;exitDy=0;entryX=0;entryY=0.5;entryDx=0;entryDy=0;startArrow=none;startFill=0;endArrow=blockThin;endFill=1;" edge="1" parent="iKVtsun-274gXnHqu6iJ-1" source="iKVtsun-274gXnHqu6iJ-25" target="iKVtsun-274gXnHqu6iJ-17">
          <mxGeometry relative="1" as="geometry"/>
        </mxCell>
        <mxCell id="iKVtsun-274gXnHqu6iJ-25" value="운동기구 관리기능" style="rounded=0;whiteSpace=wrap;html=1;" vertex="1" parent="iKVtsun-274gXnHqu6iJ-1">
          <mxGeometry x="680" y="190" width="120" height="60" as="geometry"/>
        </mxCell>
        <mxCell id="RFvscnLixqenuv6icKw9-0" value="" style="endArrow=oval;html=1;startArrow=oval;startFill=1;endFill=1;edgeStyle=elbowEdgeStyle;elbow=vertical;" edge="1" parent="iKVtsun-274gXnHqu6iJ-1">
          <mxGeometry width="50" height="50" relative="1" as="geometry">
            <mxPoint x="1040" y="480" as="sourcePoint"/>
            <mxPoint x="440" y="480" as="targetPoint"/>
            <Array as="points">
              <mxPoint x="785" y="630"/>
            </Array>
          </mxGeometry>
        </mxCell>
        <mxCell id="3Dyg7915euqjVnlGAksh-0" style="edgeStyle=elbowEdgeStyle;rounded=0;orthogonalLoop=1;jettySize=auto;elbow=vertical;html=1;exitX=0.5;exitY=1;exitDx=0;exitDy=0;entryX=0.5;entryY=0;entryDx=0;entryDy=0;startArrow=none;startFill=0;endArrow=blockThin;endFill=1;" edge="1" parent="iKVtsun-274gXnHqu6iJ-1" source="3Dyg7915euqjVnlGAksh-1" target="3Dyg7915euqjVnlGAksh-9">
          <mxGeometry relative="1" as="geometry"/>
        </mxCell>
        <mxCell id="g5JfXlogDtupLMPuv5Kc-9" style="edgeStyle=orthogonalEdgeStyle;rounded=0;orthogonalLoop=1;jettySize=auto;html=1;exitX=0.5;exitY=1;exitDx=0;exitDy=0;entryX=0.5;entryY=0;entryDx=0;entryDy=0;startArrow=none;startFill=0;endArrow=blockThin;endFill=1;" edge="1" parent="iKVtsun-274gXnHqu6iJ-1" source="3Dyg7915euqjVnlGAksh-1" target="g5JfXlogDtupLMPuv5Kc-8">
          <mxGeometry relative="1" as="geometry">
            <Array as="points">
              <mxPoint x="515" y="910"/>
              <mxPoint x="695" y="910"/>
            </Array>
          </mxGeometry>
        </mxCell>
        <mxCell id="3Dyg7915euqjVnlGAksh-1" value="등록" style="rounded=0;whiteSpace=wrap;html=1;" vertex="1" parent="iKVtsun-274gXnHqu6iJ-1">
          <mxGeometry x="455" y="690" width="120" height="60" as="geometry"/>
        </mxCell>
        <mxCell id="3Dyg7915euqjVnlGAksh-2" style="edgeStyle=elbowEdgeStyle;rounded=0;orthogonalLoop=1;jettySize=auto;elbow=vertical;html=1;exitX=0.5;exitY=1;exitDx=0;exitDy=0;startArrow=none;startFill=0;endArrow=blockThin;endFill=1;" edge="1" parent="iKVtsun-274gXnHqu6iJ-1" source="3Dyg7915euqjVnlGAksh-4" target="3Dyg7915euqjVnlGAksh-7">
          <mxGeometry relative="1" as="geometry">
            <mxPoint x="755" y="834" as="targetPoint"/>
          </mxGeometry>
        </mxCell>
        <mxCell id="3Dyg7915euqjVnlGAksh-3" style="edgeStyle=elbowEdgeStyle;rounded=0;orthogonalLoop=1;jettySize=auto;elbow=vertical;html=1;exitX=0.5;exitY=1;exitDx=0;exitDy=0;entryX=0.5;entryY=0;entryDx=0;entryDy=0;startArrow=none;startFill=0;endArrow=blockThin;endFill=1;" edge="1" parent="iKVtsun-274gXnHqu6iJ-1" source="3Dyg7915euqjVnlGAksh-4" target="3Dyg7915euqjVnlGAksh-8">
          <mxGeometry relative="1" as="geometry"/>
        </mxCell>
        <mxCell id="3Dyg7915euqjVnlGAksh-4" value="조회" style="rounded=0;whiteSpace=wrap;html=1;" vertex="1" parent="iKVtsun-274gXnHqu6iJ-1">
          <mxGeometry x="755" y="690" width="120" height="60" as="geometry"/>
        </mxCell>
        <mxCell id="3Dyg7915euqjVnlGAksh-5" value="수정" style="rounded=0;whiteSpace=wrap;html=1;" vertex="1" parent="iKVtsun-274gXnHqu6iJ-1">
          <mxGeometry x="605" y="690" width="120" height="60" as="geometry"/>
        </mxCell>
        <mxCell id="3Dyg7915euqjVnlGAksh-6" value="삭제" style="rounded=0;whiteSpace=wrap;html=1;" vertex="1" parent="iKVtsun-274gXnHqu6iJ-1">
          <mxGeometry x="900" y="690" width="120" height="60" as="geometry"/>
        </mxCell>
        <mxCell id="3Dyg7915euqjVnlGAksh-7" value="기구 번호" style="rounded=0;whiteSpace=wrap;html=1;" vertex="1" parent="iKVtsun-274gXnHqu6iJ-1">
          <mxGeometry x="680" y="823" width="120" height="60" as="geometry"/>
        </mxCell>
        <mxCell id="3Dyg7915euqjVnlGAksh-8" value="노후여부" style="rounded=0;whiteSpace=wrap;html=1;" vertex="1" parent="iKVtsun-274gXnHqu6iJ-1">
          <mxGeometry x="835" y="824" width="120" height="60" as="geometry"/>
        </mxCell>
        <mxCell id="3Dyg7915euqjVnlGAksh-9" value="구매 일자" style="rounded=0;whiteSpace=wrap;html=1;" vertex="1" parent="iKVtsun-274gXnHqu6iJ-1">
          <mxGeometry x="455" y="956" width="120" height="60" as="geometry"/>
        </mxCell>
        <mxCell id="g5JfXlogDtupLMPuv5Kc-4" value="" style="endArrow=classic;html=1;entryX=0.5;entryY=0;entryDx=0;entryDy=0;" edge="1" parent="iKVtsun-274gXnHqu6iJ-1">
          <mxGeometry width="50" height="50" relative="1" as="geometry">
            <mxPoint x="509" y="630" as="sourcePoint"/>
            <mxPoint x="509" y="686" as="targetPoint"/>
          </mxGeometry>
        </mxCell>
        <mxCell id="g5JfXlogDtupLMPuv5Kc-5" value="" style="endArrow=classic;html=1;entryX=0.5;entryY=0;entryDx=0;entryDy=0;" edge="1" parent="iKVtsun-274gXnHqu6iJ-1">
          <mxGeometry width="50" height="50" relative="1" as="geometry">
            <mxPoint x="659" y="630" as="sourcePoint"/>
            <mxPoint x="659" y="686" as="targetPoint"/>
          </mxGeometry>
        </mxCell>
        <mxCell id="g5JfXlogDtupLMPuv5Kc-6" value="" style="endArrow=classic;html=1;entryX=0.5;entryY=0;entryDx=0;entryDy=0;" edge="1" parent="iKVtsun-274gXnHqu6iJ-1">
          <mxGeometry width="50" height="50" relative="1" as="geometry">
            <mxPoint x="809" y="630" as="sourcePoint"/>
            <mxPoint x="809" y="686" as="targetPoint"/>
          </mxGeometry>
        </mxCell>
        <mxCell id="g5JfXlogDtupLMPuv5Kc-7" value="" style="endArrow=classic;html=1;entryX=0.5;entryY=0;entryDx=0;entryDy=0;" edge="1" parent="iKVtsun-274gXnHqu6iJ-1">
          <mxGeometry width="50" height="50" relative="1" as="geometry">
            <mxPoint x="959" y="630" as="sourcePoint"/>
            <mxPoint x="959" y="686" as="targetPoint"/>
          </mxGeometry>
        </mxCell>
        <mxCell id="g5JfXlogDtupLMPuv5Kc-8" value="구매처" style="rounded=0;whiteSpace=wrap;html=1;" vertex="1" parent="iKVtsun-274gXnHqu6iJ-1">
          <mxGeometry x="635" y="956" width="120" height="60" as="geometry"/>
        </mxCell>
      </root>
    </mxGraphModel>
  </diagram>
  <diagram id="mpkqIMrdFTdJKU5qoVHn" name="Page-3">
    <mxGraphModel dx="910" dy="736" grid="1" gridSize="10" guides="1" tooltips="1" connect="1" arrows="1" fold="1" page="1" pageScale="1" pageWidth="1654" pageHeight="2336" math="0" shadow="0">
      <root>
        <mxCell id="JPRwbdnZcgEGyhotDR1s-0"/>
        <mxCell id="JPRwbdnZcgEGyhotDR1s-1" parent="JPRwbdnZcgEGyhotDR1s-0"/>
        <mxCell id="JPRwbdnZcgEGyhotDR1s-6" value="담당 프로그램" style="rounded=0;whiteSpace=wrap;html=1;" vertex="1" parent="JPRwbdnZcgEGyhotDR1s-1">
          <mxGeometry x="870" y="360" width="120" height="60" as="geometry"/>
        </mxCell>
        <mxCell id="ib3m5ivftysx34RKHUA7-14" style="edgeStyle=orthogonalEdgeStyle;rounded=0;orthogonalLoop=1;jettySize=auto;html=1;exitX=0.5;exitY=1;exitDx=0;exitDy=0;entryX=0.5;entryY=0;entryDx=0;entryDy=0;startArrow=none;startFill=0;endArrow=blockThin;endFill=1;" edge="1" parent="JPRwbdnZcgEGyhotDR1s-1" source="JPRwbdnZcgEGyhotDR1s-7" target="JPRwbdnZcgEGyhotDR1s-9">
          <mxGeometry relative="1" as="geometry"/>
        </mxCell>
        <mxCell id="ib3m5ivftysx34RKHUA7-15" style="edgeStyle=orthogonalEdgeStyle;rounded=0;orthogonalLoop=1;jettySize=auto;html=1;exitX=0.5;exitY=1;exitDx=0;exitDy=0;startArrow=none;startFill=0;endArrow=blockThin;endFill=1;" edge="1" parent="JPRwbdnZcgEGyhotDR1s-1" source="JPRwbdnZcgEGyhotDR1s-7" target="JPRwbdnZcgEGyhotDR1s-6">
          <mxGeometry relative="1" as="geometry"/>
        </mxCell>
        <mxCell id="ib3m5ivftysx34RKHUA7-16" style="edgeStyle=orthogonalEdgeStyle;rounded=0;orthogonalLoop=1;jettySize=auto;html=1;exitX=0.5;exitY=1;exitDx=0;exitDy=0;startArrow=none;startFill=0;endArrow=blockThin;endFill=1;" edge="1" parent="JPRwbdnZcgEGyhotDR1s-1" source="JPRwbdnZcgEGyhotDR1s-7" target="JPRwbdnZcgEGyhotDR1s-8">
          <mxGeometry relative="1" as="geometry"/>
        </mxCell>
        <mxCell id="JPRwbdnZcgEGyhotDR1s-7" value="트레이너" style="rounded=0;whiteSpace=wrap;html=1;" vertex="1" parent="JPRwbdnZcgEGyhotDR1s-1">
          <mxGeometry x="707" y="210" width="120" height="60" as="geometry"/>
        </mxCell>
        <mxCell id="JPRwbdnZcgEGyhotDR1s-8" value="트레이너 코드" style="rounded=0;whiteSpace=wrap;html=1;" vertex="1" parent="JPRwbdnZcgEGyhotDR1s-1">
          <mxGeometry x="550" y="360" width="120" height="60" as="geometry"/>
        </mxCell>
        <mxCell id="JPRwbdnZcgEGyhotDR1s-9" value="이름" style="rounded=0;whiteSpace=wrap;html=1;" vertex="1" parent="JPRwbdnZcgEGyhotDR1s-1">
          <mxGeometry x="707" y="360" width="120" height="60" as="geometry"/>
        </mxCell>
        <mxCell id="ib3m5ivftysx34RKHUA7-13" style="edgeStyle=orthogonalEdgeStyle;rounded=0;orthogonalLoop=1;jettySize=auto;html=1;exitX=0.5;exitY=1;exitDx=0;exitDy=0;startArrow=none;startFill=0;endArrow=blockThin;endFill=1;" edge="1" parent="JPRwbdnZcgEGyhotDR1s-1" source="IXBJ0knrd_BR9IuYNPMg-0" target="JPRwbdnZcgEGyhotDR1s-7">
          <mxGeometry relative="1" as="geometry"/>
        </mxCell>
        <mxCell id="IXBJ0knrd_BR9IuYNPMg-0" value="트레이너 관리 기능" style="rounded=0;whiteSpace=wrap;html=1;" vertex="1" parent="JPRwbdnZcgEGyhotDR1s-1">
          <mxGeometry x="707" y="110" width="120" height="60" as="geometry"/>
        </mxCell>
        <mxCell id="ib3m5ivftysx34RKHUA7-0" value="" style="endArrow=oval;html=1;startArrow=oval;startFill=1;endFill=1;edgeStyle=elbowEdgeStyle;elbow=vertical;" edge="1" parent="JPRwbdnZcgEGyhotDR1s-1">
          <mxGeometry width="50" height="50" relative="1" as="geometry">
            <mxPoint x="1067" y="340" as="sourcePoint"/>
            <mxPoint x="467" y="340" as="targetPoint"/>
            <Array as="points">
              <mxPoint x="812" y="490"/>
            </Array>
          </mxGeometry>
        </mxCell>
        <mxCell id="ib3m5ivftysx34RKHUA7-1" value="등록" style="rounded=0;whiteSpace=wrap;html=1;" vertex="1" parent="JPRwbdnZcgEGyhotDR1s-1">
          <mxGeometry x="482" y="550" width="120" height="60" as="geometry"/>
        </mxCell>
        <mxCell id="ib3m5ivftysx34RKHUA7-2" style="edgeStyle=elbowEdgeStyle;rounded=0;orthogonalLoop=1;jettySize=auto;elbow=vertical;html=1;exitX=0.5;exitY=1;exitDx=0;exitDy=0;startArrow=none;startFill=0;endArrow=blockThin;endFill=1;" edge="1" parent="JPRwbdnZcgEGyhotDR1s-1" source="ib3m5ivftysx34RKHUA7-4" target="ib3m5ivftysx34RKHUA7-7">
          <mxGeometry relative="1" as="geometry">
            <mxPoint x="782" y="694" as="targetPoint"/>
          </mxGeometry>
        </mxCell>
        <mxCell id="ib3m5ivftysx34RKHUA7-3" style="edgeStyle=elbowEdgeStyle;rounded=0;orthogonalLoop=1;jettySize=auto;elbow=vertical;html=1;exitX=0.5;exitY=1;exitDx=0;exitDy=0;entryX=0.5;entryY=0;entryDx=0;entryDy=0;startArrow=none;startFill=0;endArrow=blockThin;endFill=1;" edge="1" parent="JPRwbdnZcgEGyhotDR1s-1" source="ib3m5ivftysx34RKHUA7-4" target="ib3m5ivftysx34RKHUA7-8">
          <mxGeometry relative="1" as="geometry"/>
        </mxCell>
        <mxCell id="ib3m5ivftysx34RKHUA7-4" value="조회" style="rounded=0;whiteSpace=wrap;html=1;" vertex="1" parent="JPRwbdnZcgEGyhotDR1s-1">
          <mxGeometry x="782" y="550" width="120" height="60" as="geometry"/>
        </mxCell>
        <mxCell id="ib3m5ivftysx34RKHUA7-5" value="수정" style="rounded=0;whiteSpace=wrap;html=1;" vertex="1" parent="JPRwbdnZcgEGyhotDR1s-1">
          <mxGeometry x="632" y="550" width="120" height="60" as="geometry"/>
        </mxCell>
        <mxCell id="ib3m5ivftysx34RKHUA7-6" value="삭제" style="rounded=0;whiteSpace=wrap;html=1;" vertex="1" parent="JPRwbdnZcgEGyhotDR1s-1">
          <mxGeometry x="927" y="550" width="120" height="60" as="geometry"/>
        </mxCell>
        <mxCell id="ib3m5ivftysx34RKHUA7-7" value="담당 회원 번호" style="rounded=0;whiteSpace=wrap;html=1;" vertex="1" parent="JPRwbdnZcgEGyhotDR1s-1">
          <mxGeometry x="710" y="684" width="120" height="60" as="geometry"/>
        </mxCell>
        <mxCell id="ib3m5ivftysx34RKHUA7-8" value="프로그램 시간표" style="rounded=0;whiteSpace=wrap;html=1;" vertex="1" parent="JPRwbdnZcgEGyhotDR1s-1">
          <mxGeometry x="862" y="684" width="120" height="60" as="geometry"/>
        </mxCell>
        <mxCell id="ib3m5ivftysx34RKHUA7-9" value="" style="endArrow=classic;html=1;entryX=0.5;entryY=0;entryDx=0;entryDy=0;" edge="1" parent="JPRwbdnZcgEGyhotDR1s-1">
          <mxGeometry width="50" height="50" relative="1" as="geometry">
            <mxPoint x="536" y="490" as="sourcePoint"/>
            <mxPoint x="536" y="546" as="targetPoint"/>
          </mxGeometry>
        </mxCell>
        <mxCell id="ib3m5ivftysx34RKHUA7-10" value="" style="endArrow=classic;html=1;entryX=0.5;entryY=0;entryDx=0;entryDy=0;" edge="1" parent="JPRwbdnZcgEGyhotDR1s-1">
          <mxGeometry width="50" height="50" relative="1" as="geometry">
            <mxPoint x="686" y="490" as="sourcePoint"/>
            <mxPoint x="686" y="546" as="targetPoint"/>
          </mxGeometry>
        </mxCell>
        <mxCell id="ib3m5ivftysx34RKHUA7-11" value="" style="endArrow=classic;html=1;entryX=0.5;entryY=0;entryDx=0;entryDy=0;" edge="1" parent="JPRwbdnZcgEGyhotDR1s-1">
          <mxGeometry width="50" height="50" relative="1" as="geometry">
            <mxPoint x="836" y="490" as="sourcePoint"/>
            <mxPoint x="836" y="546" as="targetPoint"/>
          </mxGeometry>
        </mxCell>
        <mxCell id="ib3m5ivftysx34RKHUA7-12" value="" style="endArrow=classic;html=1;entryX=0.5;entryY=0;entryDx=0;entryDy=0;" edge="1" parent="JPRwbdnZcgEGyhotDR1s-1">
          <mxGeometry width="50" height="50" relative="1" as="geometry">
            <mxPoint x="986" y="490" as="sourcePoint"/>
            <mxPoint x="986" y="546" as="targetPoint"/>
          </mxGeometry>
        </mxCell>
      </root>
    </mxGraphModel>
  </diagram>
</mxfile>
